%module sdurws

%{
#define RWS_USE_PTR
#include <rwlibs/swig/ScriptTypes.hpp>
#include <rw/kinematics.hpp>
#include <rwslibs/swig/ScriptTypes.hpp>
#include <rw/core/Ptr.hpp>
#include <rwslibs/rwstudioapp/RobWorkStudioApp.hpp>
#include <rw/models.hpp>
#include <rw/invkin.hpp>

using namespace rwlibs::swig;
using namespace rws::swig;

using rw::trajectory::Interpolator;
using rw::trajectory::Blend;
using rw::trajectory::Path;
using rw::trajectory::Timed;
using rw::trajectory::Trajectory;
using rw::trajectory::InterpolatorTrajectory;
using rw::pathplanning::PathPlanner;

%}

%include <rwlibs/swig/ext_i/rw_vector.i>
%include <exception.i>

%import <rwlibs/swig/sdurw_core.i>
%import <rwlibs/swig/sdurw_common.i>
%import <rwlibs/swig/sdurw_math.i>
%import <rwlibs/swig/sdurw_kinematics.i>
%import <rwlibs/swig/sdurw_models.i>
%import <rwlibs/swig/sdurw_sensor.i>
%import <rwlibs/swig/sdurw_proximity.i>
%import <rwlibs/swig/sdurw_trajectory.i>
%import <rwlibs/swig/sdurw.i> 

%pragma(java) jniclassclassmodifiers="class"

%pragma(java) jniclassimports=%{
import org.robwork.sdurw.*;
import org.robwork.sdurw_core.*;
import org.robwork.sdurw_common.*;
import org.robwork.sdurw_math.*;
import org.robwork.sdurw_kinematics.*;
import org.robwork.sdurw_models.*;
import org.robwork.sdurw_sensor.*;
import org.robwork.sdurw_proximity.*;
import org.robwork.sdurw_trajectory.*;
%}
%pragma(java) moduleimports=%{
import org.robwork.sdurw.*;
import org.robwork.sdurw_core.*;
import org.robwork.sdurw_common.*;
import org.robwork.sdurw_math.*;
import org.robwork.sdurw_kinematics.*;
import org.robwork.sdurw_models.*;
import org.robwork.sdurw_sensor.*;
import org.robwork.sdurw_proximity.*;
import org.robwork.sdurw_trajectory.*;
%}
%typemap(javaimports) SWIGTYPE %{
import org.robwork.sdurw.*;
import org.robwork.sdurw_core.*;
import org.robwork.sdurw_common.*;
import org.robwork.sdurw_math.*;
import org.robwork.sdurw_kinematics.*;
import org.robwork.sdurw_models.*;
import org.robwork.sdurw_sensor.*;
import org.robwork.sdurw_proximity.*;
import org.robwork.sdurw_trajectory.*;
%}


%{
#ifndef SWIG_POINTER_NO_NULL
#define SWIG_POINTER_NO_NULL 0
#endif
%}

#define RWS_USE_PTR
/********************************************
 * General utility functions
 ********************************************/

/**
 * @brief Launch an instance of RobWorkStudio
 * @return pointer to robworkstudio
 */ 
rw::core::Ptr<RobWorkStudio>& getRobWorkStudioInstance();

/**
 * @brief Launch an instance of RobWorkStudio
 * @param args [in] string literal of input arguments for robworkstudio
 * @return pointer to robworkstudio
 */
rw::core::Ptr<RobWorkStudio>& getRobWorkStudioInstance(const std::string& args);

/**
 * @brief incase RobWorkStudio has been launched by other means then getRobWorkStudioInstance()
 * use this function to get acces to all the build in functions
 * @param rwstudio [in] a pointer to a robworkStudio Instance
 */
void setRobWorkStudio (RobWorkStudio* rwstudio);

/**
 * @brief get a pointer to the current associated robworkstudio instance
 * @return a pointer to the current robworkStudio Instance
 */
rw::core::Ptr<RobWorkStudio>& getRobWorkStudio();

/**
 * @brief Find out if robworkstudio is running. NOTICE only if robworkstudio started with getRobWorkStudioInstance
 * @return true if running
 */
bool isRunning();

/**
 * @brief this is used to connect to an already running instance of robworkStudio.
 * Notice. The main purpose for this function is to allow rws python plugins to find robworkstudio
 * @return The running robworkstudio instance
 */
rw::core::Ptr<RobWorkStudio> getRobWorkStudioFromQt ();


/**
 * @brief Close a running RobWorkStudio Instance. Blocking until rws is closed. This might take awaile.
 */
void closeRobWorkStudio ();



const rw::kinematics::State& getState ();
void setState (rw::kinematics::State& state);
rw::core::Ptr< rw::models::Device > findDevice (const std::string& name);
rw::core::Ptr< rw::models::JointDevice > findJointDevice (const std::string& name);
rw::core::Ptr< rw::models::SerialDevice > findSerialDevice (const std::string& name);
rw::core::Ptr< rw::models::TreeDevice > findTreeDevice (const std::string& name);
rw::core::Ptr< rw::models::ParallelDevice > findParallelDevice (const std::string& name);
rw::kinematics::Frame* findFrame (const std::string& name);
rw::kinematics::MovableFrame* findMovableFrame (const std::string& name);
rw::kinematics::FixedFrame* findFixedFrame (const std::string& name);

void moveTo (rw::kinematics::MovableFrame* mframe, rw::math::Transform3D< double > wTframe);
void moveTo (rw::kinematics::Frame* frame, rw::kinematics::MovableFrame* mframe, rw::math::Transform3D< double > wTtcp);
void moveTo (const std::string& fname, const std::string& mname,
             rw::math::Transform3D< double > wTframe);

rw::math::Q getQ (rw::core::Ptr< rw::models::Device > dev);
void setQ (rw::core::Ptr< rw::models::Device > dev, rw::math::Q);

void setTransform (rw::kinematics::Frame* mframe, rw::math::Transform3D< double > wTframe);

rw::math::Transform3D< double > wTf (rw::kinematics::Frame* frame);
rw::math::Transform3D< double > fTf (rw::kinematics::Frame* frame, rw::kinematics::Frame* frame);
rw::math::Transform3D< double > wTf (const std::string& frame);
rw::math::Transform3D< double > fTf (const std::string& frame, const std::string& frame);


/********************************************
 * Qt
 ********************************************/

%nodefaultctor QString;
class QString
{
}; 

%nodefaultctor QWidget;
class QWidget 
{
};

/********************************************
 * RWS
 ********************************************/

class RWStudioView3D { 
public:
    RWStudioView3D(RobWorkStudio* rwStudio, QWidget* parent);
    void showPivotPoint(bool visible);  
    //void setDrawType(rw::graphics::DrawableNode::DrawType drawType); 
    rw::kinematics::Frame* pickFrame(int x, int y);
    rw::core::Ptr<rw::graphics::DrawableNode> pick(int x, int y);
 
    rw::core::Ptr<rw::graphics::WorkCellScene> getWorkCellScene(); 
    rw::core::Ptr<rw::graphics::SceneViewer> getSceneViewer(); 
    void saveBufferToFile(const QString& filename);

};

%template (RWStudioView3DPtr) rw::core::Ptr<RWStudioView3D>;

class RobWorkStudio { 
public:
    RobWorkStudio(const rw::core::PropertyMap& map);

    void openFile(const std::string& filename);

    rw::core::PropertyMap& getPropertyMap();


    rw::core::Ptr<rw::models::WorkCell> getWorkCell();

    rw::core::Ptr<rw::proximity::CollisionDetector> getCollisionDetector();

    rw::core::Ptr<rw::graphics::WorkCellScene> getWorkCellScene();

    rw::core::Ptr<RWStudioView3D> getView();

    const rw::trajectory::Path<rw::trajectory::Timed<rw::kinematics::State> >& getTimedStatePath();

    rw::core::Log& log();

    //void updateAndRepaint();
    //void setState(const State& state);
    //void setTimedStatePath(const PathTimedState& path);
    void postState(const rw::kinematics::State& state);
    void postUpdateAndRepaint();
    void postSaveViewGL(const std::string& str);
    void postTimedStatePath(const rw::trajectory::Path<rw::trajectory::Timed<rw::kinematics::State> >& path);
    void postWorkCell(rw::core::Ptr<rw::models::WorkCell> workcell);
    void postOpenWorkCell(const std::string& str);
    void postExit();

    const rw::kinematics::State& getState();


    %extend {
        void setTimedStatePath(rw::core::Ptr<rw::trajectory::Path<rw::trajectory::Timed<rw::kinematics::State> > > path){
            $self->postTimedStatePath(*path);
        }

        void setState(const rw::kinematics::State& state){
            $self->postState(state);
        }

        void setWorkCell(rw::core::Ptr<rw::models::WorkCell> workcell){
            $self->postWorkCell(workcell);
        }

        void openWorkCell(const std::string& file){
            $self->postOpenWorkCell(file);
        }

        void saveViewGL(const std::string& filename){
            $self->postSaveViewGL( filename );
        }

        rw::math::Transform3D<double> getViewTransform(){
            return $self->getView()->getSceneViewer()->getTransform();
        }

        void setViewTransform(rw::math::Transform3D<double> t3d){
            $self->getView()->getSceneViewer()->setTransform(t3d);
            $self->postUpdateAndRepaint();
        }

        void updateAndRepaint(){
            $self->postUpdateAndRepaint();
        }

        void fireGenericEvent(const std::string& str){
        	RW_WARN("fireGenericEvent(const std::string& str) IS DEPRECATED. PLEASE USE send and wait. These use the GenericAnyEvent");
        	
            $self->postGenericEvent(str);
        }

        void send(const std::string& id){
        	boost::any data;
        	std::cout << "Sending event: " << id << std::endl;
            $self->postGenericAnyEvent(id, data);
        }
        void send(const std::string& id, const std::string& val){
            $self->postGenericAnyEvent(id, val);
        }

        void send(const std::string& id, double val){
            $self->postGenericAnyEvent(id, val);
        }

        void send(const std::string& id, rw::math::Q val){
            $self->postGenericAnyEvent(id, val);
        }

        void send(const std::string& id, const rw::core::PropertyMap& val){
            $self->postGenericAnyEvent(id, val);
        }

        int wait(const std::string& id){
            try {
            	
                $self->waitForAnyEvent(id);
            } catch ( ... ){
                return 0;
            }
            return 1;
        }

        int wait(const std::string& id, double timeout){
            try {
                $self->waitForAnyEvent(id, timeout);
            } catch ( ... ){ return 0; }
            return 1;
        }

        int wait(const std::string& id, rw::math::Q& result, double timeout=-1.0){
            try {
                boost::any data = $self->waitForAnyEvent(id, timeout);
                rw::math::Q* q = boost::any_cast< rw::math::Q >(&data);
                if(q!=NULL)
                    result = *q;
            } catch ( ... ){ return 0;}
            return 1;
        }

    }
    // events
    //StateChangedEvent& stateChangedEvent();
    //FrameSelectedEvent& frameSelectedEvent();
    //GenericEvent& genericEvent();
    //KeyEvent& keyEvent();
    //MousePressedEvent& mousePressedEvent();
    //StateTrajectoryChangedEvent& stateTrajectoryChangedEvent();
    //PositionSelectedEvent& positionSelectedEvent();

};

%template (RobWorkStudioPtr) rw::core::Ptr<RobWorkStudio>;

/********************************************
 * RWSLIBS GTASK
 ********************************************/
 
/********************************************
 * RWSLIBS JOG
 ********************************************/
 
/********************************************
 * RWSLIBS LOG
 ********************************************/

/********************************************
 * RWSLIBS PLANNING
 ********************************************/

/********************************************
 * RWSLIBS PLAYBACK
 ********************************************/

/********************************************
 * RWSLIBS PROPERTYVIEW
 ********************************************/

/********************************************
 * RWSLIBS RWSTUDIOAPP
 ********************************************/
%{
    #include <rwslibs/rwstudioapp/RobWorkStudioApp.hpp>
%}
%include <rwslibs/rwstudioapp/RobWorkStudioApp.hpp>

/********************************************
 * RWSLIBS SENSORS
 ********************************************/

/********************************************
 * RWSLIBS SWIG
 ********************************************/
 
/********************************************
 * RWSLIBS TREEVIEW
 ********************************************/
