
%include <exception.i>

%include <std_string.i>
%include <std_pair.i>
%include <std_map.i>
%include <rwlibs/swig/ext_i/os.i>

%typemap(out, fragment="SWIG_From_std_string") std::string&& {
  $result = SWIG_From_std_string(*$1);
}

%typemap(in, fragment="SWIG_AsVal_std_string") std::string&& (std::string temp) {
  int res = SWIG_AsVal_std_string($input, &temp);
  $1 = &temp;
}
#if defined(SWIGPYTHON)
%typemap(out, fragment="SWIG_From_std_string") std::string& {
  $result = SWIG_From_std_string(*$1);
}

%typemap(in, fragment="SWIG_AsVal_std_string") std::string& (std::string temp) {
  int res = SWIG_AsVal_std_string($input, &temp);
  $1 = &temp;
}

%typemap(out, fragment="SWIG_From_double") double& {
  $result = SWIG_From_double(*$1);
}

%typemap(out, fragment="SWIG_From_bool") bool& {
    $result=SWIG_From_bool($1);
}

#endif

%{
  #include <complex>
%}
namespace std {

    template<typename _Tp>
    struct complex {
        constexpr complex(const _Tp& __r = _Tp(), const _Tp& __i = _Tp());
        constexpr complex(const complex&) = default;
    };

    class exception {
      public:
        exception() noexcept;
        exception(const exception&) noexcept;
#if !defined(SWIGPYTHON)
        exception& operator=(const exception&) noexcept;
#endif
        virtual ~exception();
        virtual const char* what() const noexcept;
  };

}

%template(complexd) std::complex<double>;
%template(complexf) std::complex<float>;

#if (defined(SWIGLUA) || defined(SWIGPYTHON))
	%extend std::vector<std::string> { char *__str__() { return printCString(*$self); } }
#endif

#if ! defined(WIN32)
  typedef long unsigned int size_t;
  typedef unsigned char uint8_t;
  typedef unsigned short uint16_t;
  typedef unsigned int uint32_t;
#endif 

%template(pair_d_d) std::pair<double,double>;
%template(pair_f_f) std::pair<float,float>;
%template(pair_ui_ui) std::pair<unsigned int, unsigned int>;
%template(pair_b_d) std::pair<bool,double>;
%template(pair_b_ul) std::pair<bool,unsigned long>;
%template(pair_b_l) std::pair<bool,long>;
%template(pair_b_i) std::pair<bool,int>;
%template(pair_b_ui) std::pair<bool,unsigned int>;
%template(pairBoolVectorDouble) std::pair<bool,std::vector<double>>;
%template(pairBoolVectorInt) std::pair<bool,std::vector<int>>;
%template(pairBoolVectorLong) std::pair<bool,std::vector<long>>;
%template(pairBoolVectorUInt) std::pair<bool,std::vector<unsigned int>>;
%template(pairBoolVectorULong) std::pair<bool,std::vector<unsigned long>>;
%template(Pair_i_i) std::pair<int, int>;
%template(Pair_s_s) std::pair <std::string, std::string>; 

%include <rwlibs/swig/ext_i/rw_vector.i>


%std_vector_f(vector_s,std::string,std::vector,"stringToFromPy");
%std_vector_f(vector_c,char,std::vector,"stringToFromPy");
%std_vector_f(vector_i,int,std::vector,"intToFromPy");
%std_vector_f(vector_l,long,std::vector,"intToFromPy");
%std_vector_f(vector_ui, unsigned long,std::vector,"intToFromPy");
%std_vector_f(vector_d,double,std::vector,"doubleToFromPy");
%std_vector_f(vector_f,float,std::vector,"doubleToFromPy");
%std_vector_f(vector_b,bool,std::vector,"intToFromPy");

%std_vector_explicit(VectorPair_d_d,double,SWIG_CORE_DEFINE(std::vector<std::pair<double,double>>),"generalToFromPy");
%std_vector_explicit(VectorPair_i_i,int,SWIG_CORE_DEFINE(std::vector<std::pair<int,int>>),"generalToFromPy");
%std_vector_explicit(VectorPair_s_s,std::string,SWIG_CORE_DEFINE(std::vector<std::pair<std::string,std::string>>),"generalToFromPy"); 

%std_vector_explicit(VecotrVecotrULong,unsigned long,std::vector<std::vector<unsigned long>>,"intToFromPy");

%std_vector(VectorComplexDouble,std::complex<double>)
